{
  "cviceni": {
    "version": {
      "global": "<%= version %>",
      "content": 2
    },
    "katalog": [
      "test",
      "public"
    ],
    "language": "cs",
    "slug": "co-prinese-mir",
    "nazev": "Co přinese mír?",
    "autor": [
      "Jaroslav Najbert"
    ],
    "klicovaSlova": [
      "důsledky 1. světové války",
      "versailleský mírový systém",
      "dějiny médií",
      "dobové perspektivy",
      "vidíme pod povrch pramene"
    ],
    "anotace": {
      "ucitel": "Cvičení rozvíjí dovednost analyzovat karikatury. Využívá známou karikaturu Willa Dysona, otištěnou v květnu roku 1919 v deníku Daily Herald, která předpovídá nestabilitu právě vznikajícího versailleského mírového systému. Cvičení umožňuje žákům, aby rozpoznali symbolické prostředky, které karikaturista využil. Při analýze obrazu rekonstruují pohled autora a části britské veřejnosti na mocenskou politiku vítězů ve Versailles.",
      "verejna": "Ve francouzském zámku Versailles se připravuje podpis mírové smlouvy, která ukončí první světovou válku. Jeden australský výtvarník tyto okamžiky zachytil v karikatuře, která se později stala velmi známou a oblíbenou. Zkuste z karikatury vyčíst, co Evropě přinese mírová smlouva?"
    },
    "trvani": 30,
    "funkce": [
      "lupa",
      "cteni",
      "text",
      "svg",
      "znacky",
      "pretahovani"
    ],
    "pdf": {
      "doporucenyPostup": "co-prinese-mir.pdf"
    },
    "uvodniObrazek": "co-prinese-mir/pic-00-1024h.jpg",
    "id": 71
  },
  "slajd": [
    {
      "zadani": {
        "hlavni": "Prohlédněte si karikaturu.",
        "rozsirujici": ""
      },
      "napoveda": {
        "aktivity": [
          "lupa"
        ],
        "text": "Při kliknutí levým tlačítkem do obrazu lupa přiblíží část obrazu ve výřezu."
      },
      "prameny": [
        "co-prinese-mir/pic-00-1024h.jpg"
      ],
      "popisky": [
        "Will Dyson: Peace and future cannon fodder. Zdroj: Daily Herald, 17. května 1919"
       ]
    },
    {
      "class": "",
      "zadani": {
        "hlavni": "Označte důležité prvky na karikatuře. Popište, co podle vás znamenají. Přeložte anglické nápisy.",
        "rozsirujici": ""
      },
      "napoveda": {
        "aktivity": [
          "svg"
        ],
        "text": "Tahem myši levým tlačítkem kreslíte do obrazu. Nakliknutím na nakreslený tvar pravým tlačítkem otevřete menu s nabídkou úkonů: změnit barvu tvaru, (T) doplnit textový komentář, (X) smazat nakliknutý objekt."
      },
      "svg": {
        "soubory": [
          {
            "id": "svg-1",
            "soubor": "co-prinese-mir/pic-00-1024h.jpg",
            "funkce": [
              "text",
              "znacky"
            ]
          }
        ]
      },
      "popisky": [
        "Will Dyson: Peace and future cannon fodder. Zdroj: Daily Herald, 17. května 1919"
      ]
    },
    {
      "class": "half-slide-previous",
      "zadani": {
        "hlavni": "Přiřaďte popisky k vyznačeným místům.",
        "rozsirujici": ""
      },
      "napoveda": {
        "aktivity": [
          "svg"
        ],
        "text": "Pomocí drag and drop přesouvejte položky z nabídky do obrázku.<br> Do obrázku můžete také kreslit a zapisovat další informace."
      },
      "svg": {
        "pretahovani": {
          "id": "pretahovani-1",
          "items": [
            {
              "objekt": "plačící dítě",
              "medium": "tag"
            },
            {
              "objekt": "ročník (vojenské služby) 1940",
              "medium": "tag"
            },
            {
              "objekt": "text Versailleské mírové smlouvy",
              "medium": "tag"
            },
            {
              "objekt": "překvapení státníci Dohody",
              "medium": "tag"
            },
            {
              "objekt": "premiér Francie Georges Clemenceau přezdívaný „Tygr“",
              "medium": "tag"
            }
          ]
        },
        "soubory": [
          {
            "id": "svg-2",
            "soubor": "co-prinese-mir/pic-00-1024h.jpg",
            "funkce": [],
            "drop": true,
            "komiks": [
              {
                "kategorie": "znacka",
                "barva": "blue",
                "pozice": [
                  551,
                  147
                ]
              },
              {
                "kategorie": "znacka",
                "barva": "blue",
                "pozice": [
                  61,
                  460
                ]
              },
              {
                "kategorie": "znacka",
                "barva": "blue",
                "pozice": [
                  570,
                  536
                ]
              },
              {
                "kategorie": "znacka",
                "barva": "blue",
                "pozice": [
                  148,
                  611
                ]
              },
              {
                "kategorie": "znacka",
                "barva": "blue",
                "pozice": [
                  195,
                  948
                ]
              }
            ]
          }
        ]
      },
      "popisky": [
        "Will Dyson: Peace and future cannon fodder. Zdroj: Daily Herald, 17. května 1919"
      ]
    },
    {
      "class": "half-slide-active",
      "zadani": {
        "hlavni": "Odpovězte na otázky.",
        "rozsirujici": ""
      },
      "napoveda": {
        "aktivity": [
          "text"
        ],
        "text": "Do boxu pro text zapisujete odpověď na otázku, nebo jiný komentář (dle zadání)."
      },
      "uzivatelskyText": {
        "otazky": [
          {
            "id": "text-1",
            "zadani": "Koho nebo co symbolizuje dítě a proč pláče?",
            "instrukce": "Myslím si, že…",
            "maxDelka": 400
          },
          {
            "id": "text-2",
            "zadani": "Co si o obsahu mírové smlouvy myslela redakce Daily Herald, která karikaturu otiskla?",
            "instrukce": "Myslím si, že…",
            "maxDelka": 400
          }
        ]
      }
    }
  ]
}
