{
  "cviceni": {
    "version": {
      "global": "<%= version %>",
      "content": 3
    },
    "katalog": ["public"],
    "slug": "videt-a-slyset-srpnovou-okupaci",
    "nazev": "Vidět a slyšet srpnovou okupaci",
    "autor": [
      "Andrea Průchová"
    ],
    "casovaOsa": {
      "roky": [
        1968
      ],
      "epocha": {
        "ceska": ["pokus o refomu komunismu"]
      }
    },
    "klicovaSlova": [
      "Československo 60. léta",
      "média a informace",
      "medialita vzpomínání",
      "dobové perspektivy",
      "chápeme své emoce"
    ],
    "anotace": {
      "ucitel": "Cvičení se věnuje práci s mediálními záznamy, které zachycují dny okupace 1968 před budovou Českého rozhlasu. Žáci se postupně seznamují s dokumentárním videozáznamem a následně propojují jeho sledování s dobovým rádiovým vysíláním a současnými vzpomínkami tehdejšího pracovníka rozhlasu. Odpovídají na otázky týkající se emocionálního a informačního dopadu jednotlivých médií a jejich spojení na diváka/posluchače, hodnotí technické a obsahové kvality nahrávek a vyjadřují vlastní postoje k významu vzpomínání pro současnou společnost.",
      "verejna": "Podívejte se dokumentární záběry ze srpnové okupace roku 1968 natočené před budovou Českého rozhlasu v Praze a poslechněte si dobové vysílání a vzpomínky tehdejšího pracovníka rozhlasu. Jak na vás jako na diváky a posluchače působí spojení filmu, vysílání a vzpomínek? V čem se jednotlivé zvukové záznamy liší a v jakých případech byste záznamy sami použili, abyste ostatním události srpna 1968 přiblížili?"
    },
    "obtiznost": "střední",
    "trvani": 40,
    "funkce": [
      "lupa",
      "audio",
      "video",
      "tagy"
    ],
    "pdf": {
      "doporucenyPostup": "videt-a-slyset-srpnovou-okupaci.pdf"
    },
    "uvodniObrazek": "videt-a-slyset-srpnovou-okupaci/pic-00-800w.jpg",
    "id": 38
  },
  "slajd": [
    {
      "zadani": {
        "hlavni": "Podívejte se na videozáznam.",
        "rozsirujici": ""
      },
      "napoveda": {
        "aktivity": [
          "video"
        ],
        "text": ""
      },
      "media": {
        "nastaveni": {
          "layout": "vertikalni",
          "vzhled": "normalni"
        },
        "soubory": [
          {
            "muted": true,
            "soubor": "videt-a-slyset-srpnovou-okupaci/video-00.mp4",
            "poster": "videt-a-slyset-srpnovou-okupaci/pic-00-800w.jpg",
            "nazev": "Invaze vojsk Varšavské smlouvy do ČSSR",
            "popisek": "Československý filmový týdeník 35/1968. Zdroj: Archiv ČT"
          }
        ]
      }
    },
    {
      "zadani": {
        "hlavni": "Poslechněte si dobový zvukový záznam a odpovězte na otázku.",
        "rozsirujici": ""
      },
      "napoveda": {
        "aktivity": [
          "audio",
          "text"
        ],
        "text": ""
      },
      "uzivatelskyText": {
        "layout": "velka-galerie",
        "galerie": [
          {
            "label": "Zvukový záznam č.1",
            "soubor": "videt-a-slyset-srpnovou-okupaci/audio-00.mp3",
            "nazev": "Vysílání Čs. rozhlasu 21. srpna 1968 (sestříháno)",
            "popisek": "Zdroj: Archiv ČRo"
          }
        ],
        "otazky": [
          {
            "id": "otazka-1",
            "zadani": "Kdo si myslíte, že o situaci promlouvá a proč?",
            "instrukce": "Myslím si, že…",
            "minDelka": 10,
            "maxDelka": 400
          }
        ]
      }
    },
    {
      "class": [
        "half-slide-previous"
      ],
      "zadani": {
        "hlavni": "Pusťte si dobový zvukový záznam a video najednou.",
        "rozsirujici": ""
      },
      "napoveda": {
        "aktivity": [
          "video",
          "audio"
        ],
        "text": ""
      },
      "media": {
        "nastaveni": {
          "layout": "horizontalni"
        },
        "soubory": [
          {
            "label": "Zvukový záznam č.1",
            "soubor": "videt-a-slyset-srpnovou-okupaci/audio-00.mp3",
            "nazev": "Vysílání Čs. rozhlasu 21. srpna 1968 (sestříháno)",
            "popisek": "Zdroj: Archiv ČRo"
          },
          {
            "muted": true,
            "soubor": "videt-a-slyset-srpnovou-okupaci/video-00.mp4",
            "poster": "videt-a-slyset-srpnovou-okupaci/pic-00-800w.jpg",
            "nazev": "Invaze vojsk Varšavské smlouvy do ČSSR",
            "popisek": "Československý filmový týdeník 35/1968. Zdroj: Archiv ČT"
          }
        ]
      }
    },
    {
      "class": [
        "half-slide-active"
      ],
      "zadani": {
        "hlavni": "Charakterizujte audiozáznam.",
        "rozsirujici": "Vyberte klíčová slova z nabídky."
      },
      "napoveda": {
        "aktivity": [
          "text",
          "tagy"
        ],
        "text": ""
      },
      "klicovaSlova": {
        "klicovaSlova": [
          {
            "id": "klicova-slova-1",
            "funkce": "selekce+",
            "tagy": [
              {
                "id": 1,
                "text": "živé vysílání"
              },
              {
                "id": 2,
                "text": "pamětník"
              },
              {
                "id": 3,
                "text": "dramatický projev"
              },
              {
                "id": 4,
                "text": "horší kvalita záznamu"
              },
              {
                "id": 5,
                "text": "lepší kvalita záznamu"
              },
              {
                "id": 6,
                "text": "reportérka"
              },
              {
                "id": 7,
                "text": "vzpomínání"
              },
              {
                "id": 8,
                "text": "klidný projev"
              }
            ]
          }
        ]
      },
      "uzivatelskyText": {
        "otazky": [
          {
            "id": "otazka-2",
            "zadani": "Jaké pocity ve vás spojení záznamů vyvolává?",
            "instrukce": "Myslím si, že…",
            "minDelka": 10,
            "maxDelka": 400
          }
        ]
      }
    },
    {
      "zadani": {
        "hlavni": "Poslechněte si současný zvukový záznam a odpovězte na otázku.",
        "rozsirujici": ""
      },
      "napoveda": {
        "aktivity": [
          "audio",
          "text"
        ],
        "text": ""
      },
      "uzivatelskyText": {
        "layout": "velka-galerie",
        "galerie": [
          {
            "label": "Zvukový záznam č.1",
            "soubor": "videt-a-slyset-srpnovou-okupaci/audio-01.mp3",
            "nazev": "Rok 1968 ve vzpomínkách redaktorů Radia Praha (sestříháno)",
            "popisek": "Zdroj: Archiv ČRo"
          }
        ],
        "otazky": [
          {
            "id": "otazka-3",
            "zadani": "Kdo si myslíte, že o situaci promlouvá a proč?",
            "instrukce": "Myslím si, že…",
            "minDelka": 10,
            "maxDelka": 400
          }
        ]
      }
    },
    {
      "class": [
        "half-slide-previous"
      ],
      "zadani": {
        "hlavni": "Pusťte si současný zvukový záznam a video najednou.",
        "rozsirujici": ""
      },
      "napoveda": {
        "aktivity": [
          "video",
          "audio"
        ],
        "text": ""
      },
      "media": {
        "nastaveni": {
          "layout": "horizontalni"
        },
        "soubory": [
          {
            "label": "Zvukový záznam č.2",
            "soubor": "videt-a-slyset-srpnovou-okupaci/audio-01.mp3",
            "nazev": "Rok 1968 ve vzpomínkách redaktorů Radia Praha (sestříháno)",
            "popisek": "Zdroj: Archiv ČRo"
          },
          {
            "muted": true,
            "soubor": "videt-a-slyset-srpnovou-okupaci/video-00.mp4",
            "poster": "videt-a-slyset-srpnovou-okupaci/pic-00-800w.jpg",
            "nazev": "Invaze vojsk Varšavské smlouvy do ČSSR",
            "popisek": "Československý filmový týdeník 35/1968. Zdroj: Archiv ČT"
          }
        ]
      }
    },
    {
      "class": [
        "half-slide-active"
      ],
      "zadani": {
        "hlavni": "Charakterizujte audiozáznam.",
        "rozsirujici": "Vyberte klíčová slova z nabídky."
      },
      "napoveda": {
        "aktivity": [
          "text"
        ],
        "text": ""
      },
      "klicovaSlova": {
        "klicovaSlova": [
          {
            "id": "klicova-slova-2",
            "funkce": "selekce+",
            "tagy": [
              {
                "id": 1,
                "text": "živé vysílání"
              },
              {
                "id": 2,
                "text": "pamětník"
              },
              {
                "id": 3,
                "text": "dramatický projev"
              },
              {
                "id": 4,
                "text": "horší kvalita záznamu"
              },
              {
                "id": 5,
                "text": "lepší kvalita záznamu"
              },
              {
                "id": 6,
                "text": "reportérka"
              },
              {
                "id": 7,
                "text": "vzpomínání"
              },
              {
                "id": 8,
                "text": "klidný projev"
              }
            ]
          }
        ]
      },
      "uzivatelskyText": {
        "otazky": [
          {
            "id": "otazka-4",
            "zadani": "Jaké pocity ve vás spojení zvukového a obrazového záznamu vyvolává?",
            "instrukce": "Myslím si, že…",
            "minDelka": 10,
            "maxDelka": 400
          }
        ]
      }
    },
    {
      "class": [
        "half-slide-previous"
      ],
      "zadani": {
        "hlavni": "Srovnejte oba zvukové záznamy.",
        "rozsirujici": "V čem se zvukové záznamy podobají a v čem se liší?"
      },
      "napoveda": {
        "aktivity": [
          "audio",
          "tagy"
        ],
        "text": "Nyní jsou vybrána všechna klíčová slova, kliknutím můžete klíčové slovo odebrat. Pokud po odebrání kliknete na klíčové slovo, znovu ho přidáte."
      },
      "media": {
        "nastaveni": {
          "layout": "horizontalni"
        },
        "soubory": [
          {
            "label": "Zvukový záznam č.1",
            "soubor": "videt-a-slyset-srpnovou-okupaci/audio-00.mp3",
            "nazev": "Vysílání Čs. rozhlasu 21. srpna 1968",
            "popisek": "Zdroj: Archiv ČRo",
            "vzhled": "jednoduchy"
          },
          {
            "label": "Zvukový záznam č.2",
            "soubor": "videt-a-slyset-srpnovou-okupaci/audio-01.mp3",
            "nazev": "Rok 1968 ve vzpomínkách redaktorů Radia Praha",
            "popisek": "Zdroj: Archiv ČRo",
            "vzhled": "jednoduchy"
          }
        ]
      },
      "klicovaSlova": {
        "klicovaSlova": [
          {
            "id": "klicova-slova-3",
            "funkce": "selekce+",
            "tagy": [],
            "inherit": {
              "onInit": true,
              "from": [
                "klicova-slova-1"
              ]
            }
          },
          {
            "id": "klicova-slova-4",
            "funkce": "selekce+",
            "tagy": [],
            "inherit": {
              "onInit": true,
              "from": [
                "klicova-slova-2"
              ]
            }
          }
        ]
      },
      "uzivatelskyText": {
        "otazky": [
          {
            "id": "otazka-5",
            "zadani": "Srovnejte oba zvukové záznamy. V čem se podobají a liší?",
            "instrukce": "Myslím si, že…",
            "minDelka": 10,
            "maxDelka": 400
          }
        ]
      }
    },
    {
      "class": [
        "half-slide-active"
      ],
      "zadani": {
        "hlavni": "Odpovězte na otázky.",
        "rozsirujici": ""
      },
      "napoveda": {
        "aktivity": [
          "text"
        ],
        "text": "Do boxu pro text zapisujete odpověď na otázku, nebo jiný komentář (dle zadání)."
      },
      "uzivatelskyText": {
        "otazky": [
          {
            "id": "otazka-6",
            "zadani": "Z kterého audiozáznamu jste se dozvěděli více informací a který na vás více emocionálně působil. Proč?",
            "instrukce": "Myslím si, že…",
            "minDelka": 10,
            "maxDelka": 500
          },
          {
            "id": "otazka-7",
            "zadani": "Který ze záznamů byste použili k přiblížení srpnové okupace dalším studentům a proč?",
            "instrukce": "Myslím si, že…",
            "minDelka": 10,
            "maxDelka": 500
          }
        ]
      }
    }
  ]
}
